A,A,A,A,A,A,A,A,A,A,A,A,A,A,A,A,A,A,A,A,A,A,A,A,C,A,A,A,A,A,A,A,A,A,A,A,A,A,A,A,A,A,A,A,A,A,A,A,A,A
A,A,A,A,A,A,A,A,A,A,A,A,A,A,A,A,A,A,A,A,A,A,A,C,C,C,A,A,A,A,A,A,A,A,A,A,A,A,A,A,A,A,A,A,A,A,A,A,A,A
A,A,A,A,A,A,A,A,A,A,A,A,A,A,A,A,A,A,A,A,A,A,A,A,B,A,A,A,A,A,A,A,A,A,A,A,A,A,A,A,A,A,A,A,A,A,A,A,A,A
A,A,A,A,A,A,A,A,A,A,A,A,A,A,A,A,A,A,A,A,A,A,A,B,G,B,A,A,A,A,A,A,A,A,A,A,A,A,A,A,A,A,A,A,A,A,A,A,A,A
A,A,A,A,A,A,A,A,A,A,A,A,A,A,A,A,A,A,A,A,A,A,B,J,E,G,B,A,A,A,A,A,A,A,A,A,A,A,A,A,A,A,A,A,A,A,A,A,A,A
A,A,A,A,A,A,A,A,A,A,A,A,A,A,A,A,A,A,A,A,A,B,J,E,E,G,B,A,A,A,A,A,A,A,A,A,A,A,A,A,A,A,A,A,A,A,A,A,A,A
A,A,A,A,A,A,A,A,A,A,A,A,A,A,A,A,A,A,A,A,B,E,E,E,E,G,G,B,A,A,A,A,A,A,A,A,A,A,A,A,A,A,A,A,A,A,A,A,A,A
A,A,A,A,A,A,A,A,A,A,A,A,A,A,A,A,A,A,B,B,B,E,J,J,C,E,G,B,B,B,B,B,A,A,A,A,A,A,A,A,A,A,A,A,A,A,A,A,A,A
A,A,A,A,A,A,A,A,A,A,A,A,A,A,A,A,B,B,F,F,B,J,B,B,G,C,E,B,B,B,B,B,B,A,A,A,A,A,A,A,A,A,A,A,A,A,A,A,A,A
A,A,A,A,A,A,A,A,A,A,A,A,A,A,A,B,F,F,F,F,F,E,J,E,C,G,B,B,B,B,B,B,B,A,A,A,A,A,A,A,A,A,A,A,A,A,A,A,A,A
A,A,A,A,A,A,A,A,B,B,B,A,A,A,A,F,B,J,B,F,F,F,E,E,G,C,B,B,B,B,B,J,B,B,B,A,A,A,A,B,B,B,A,A,A,A,A,A,A,A
A,A,A,A,A,A,A,A,B,G,G,B,A,A,A,F,B,E,B,B,F,B,E,E,G,C,B,B,B,B,B,E,B,B,B,A,A,B,B,E,G,B,A,A,A,A,A,A,A,A
A,A,A,A,A,A,A,A,A,G,E,B,B,A,B,B,J,E,E,E,B,E,J,E,B,B,E,E,B,J,E,E,E,E,B,B,A,B,E,G,G,A,A,A,A,A,A,A,A,A
A,A,A,A,A,A,A,A,A,B,E,G,G,B,B,J,C,C,C,B,E,E,B,B,G,B,B,E,E,B,J,G,C,C,C,B,B,G,C,C,B,A,A,A,A,A,A,A,A,A
A,A,A,A,A,A,A,A,A,A,C,G,G,G,E,B,J,E,B,E,E,E,J,J,C,G,B,E,E,E,B,E,C,B,G,G,G,G,C,B,A,A,A,A,A,A,A,A,A,A
A,A,A,A,A,A,A,A,A,A,G,C,C,G,E,B,J,E,B,E,E,B,G,G,E,G,B,G,G,G,B,E,G,G,G,G,G,B,C,G,A,A,A,A,A,A,A,A,A,A
A,A,A,A,A,A,A,A,A,A,B,A,B,B,E,E,B,E,B,E,E,B,G,G,E,C,B,G,G,G,B,E,B,G,G,G,B,B,C,B,A,A,A,A,A,A,A,A,A,A
A,A,A,A,A,A,A,A,A,A,A,B,C,E,G,B,F,B,B,B,B,E,B,B,E,B,E,B,B,B,B,B,B,B,G,G,G,C,B,A,A,A,A,A,A,A,A,A,A,A
A,A,A,A,A,A,A,A,A,A,A,B,E,G,B,J,J,J,J,J,E,E,E,E,B,C,E,E,E,E,C,C,C,C,B,C,C,G,B,A,A,A,A,A,A,A,A,A,A,A
A,A,A,A,A,A,A,A,A,A,A,A,B,B,J,J,G,G,G,G,B,B,B,B,B,B,B,G,E,E,E,E,E,E,C,C,B,B,A,A,A,A,A,A,A,A,A,A,A,A
A,A,A,A,A,A,A,A,A,A,A,A,B,E,G,B,B,B,F,F,F,F,F,F,F,F,F,F,B,B,B,B,G,G,G,G,C,B,A,A,A,A,A,A,A,A,A,A,A,A
A,A,A,A,A,A,A,A,A,A,A,A,B,H,B,F,J,J,C,J,J,J,J,J,J,J,J,J,F,F,E,G,B,B,B,B,C,B,A,A,A,A,A,A,A,A,A,A,A,A
A,A,A,A,A,A,A,A,A,A,A,A,B,H,J,E,J,J,B,B,B,B,J,J,J,J,J,J,J,F,E,E,C,C,C,C,C,B,A,A,A,A,A,A,A,A,A,A,A,A
A,A,A,A,A,A,A,A,A,A,A,A,A,B,J,E,B,B,B,G,G,G,B,B,B,B,B,B,B,F,E,E,G,C,C,C,B,A,A,A,A,A,A,A,A,A,A,A,A,A
A,A,A,A,A,A,A,A,A,A,A,A,A,B,H,B,C,C,C,B,J,G,C,C,C,C,C,H,H,B,G,G,G,G,B,C,B,A,A,A,A,A,A,A,A,A,A,A,A,A
A,A,A,A,A,A,A,A,A,A,A,A,A,A,B,G,H,B,J,B,J,H,G,C,B,J,B,H,H,C,C,C,C,G,G,B,A,A,A,A,A,A,A,A,A,A,A,A,A,A
A,A,A,A,A,A,A,A,A,A,A,A,A,A,B,B,H,H,H,B,H,H,H,H,H,H,H,H,H,C,B,E,C,C,G,B,A,A,A,A,A,A,A,A,A,A,A,A,A,A
A,A,A,A,A,A,A,A,A,A,A,A,A,B,E,B,J,H,H,B,H,H,H,H,H,H,H,H,C,C,B,E,B,C,B,C,B,A,A,A,A,A,A,A,A,A,A,A,A,A
A,A,A,A,A,A,A,A,A,A,A,A,A,B,E,B,H,H,H,B,H,H,C,C,H,H,H,C,C,C,B,E,D,C,B,C,B,A,A,A,A,A,A,A,A,A,A,A,A,A
A,A,A,A,A,A,A,A,A,A,A,A,A,B,E,B,H,H,H,B,C,H,C,C,H,H,H,C,C,C,B,E,D,B,D,B,B,A,A,A,A,A,A,A,A,A,A,A,A,A
A,A,A,A,A,A,A,A,A,A,A,A,A,B,E,B,H,H,J,B,C,F,F,F,J,H,H,C,F,F,B,E,D,D,C,C,B,A,A,A,A,A,A,A,A,A,A,A,A,A
A,A,A,A,A,A,A,A,A,A,A,A,A,B,E,B,B,J,J,F,B,F,J,J,J,J,B,J,F,F,B,E,B,D,B,C,B,A,A,A,A,A,A,A,A,A,A,A,A,A
A,A,A,A,A,A,A,A,A,A,A,A,A,B,E,B,J,J,B,B,H,B,B,B,F,J,J,J,J,F,B,E,D,D,D,B,C,B,A,A,A,A,A,A,A,A,A,A,A,A
A,A,A,A,A,A,A,A,A,A,A,A,A,B,E,B,J,F,F,H,C,C,H,H,F,F,J,J,J,F,B,E,D,B,D,C,B,B,A,A,A,A,A,A,A,A,A,A,A,A
A,A,A,A,A,A,A,A,A,A,A,A,A,B,E,B,J,F,J,J,G,G,G,J,J,F,F,J,J,F,B,E,B,D,B,C,B,B,A,A,A,A,A,A,A,A,A,A,A,A
A,A,A,A,A,A,A,A,A,A,A,A,B,E,B,B,J,F,J,J,J,J,J,J,J,F,F,J,F,F,B,E,D,B,D,B,C,B,A,A,A,A,A,A,A,A,A,A,A,A
A,A,A,A,A,A,A,A,A,A,A,A,B,E,B,B,B,B,J,F,J,F,F,J,J,F,F,B,B,B,B,E,D,D,D,D,C,B,A,A,A,A,A,A,A,A,A,A,A,A
A,A,A,A,A,A,A,A,A,A,A,A,B,E,B,B,B,B,J,F,J,F,F,J,J,F,F,I,B,B,B,E,D,D,C,C,C,B,A,A,A,A,A,A,A,A,A,A,A,A
A,A,A,A,A,A,A,A,A,A,A,A,B,E,B,B,B,B,J,F,J,F,F,J,F,F,B,I,B,B,B,E,D,B,D,B,C,B,A,A,A,A,A,A,A,A,A,A,A,A
A,A,A,A,A,A,A,A,A,A,A,A,B,E,B,B,I,B,J,J,J,J,J,J,F,F,I,B,B,I,B,E,E,E,E,E,C,B,B,A,A,A,A,A,A,A,A,A,A,A
A,A,A,A,A,A,A,A,A,A,A,B,B,B,B,B,B,B,J,F,J,J,J,J,F,F,B,I,B,B,B,B,B,B,B,B,B,B,B,B,A,A,A,A,A,A,A,A,A,A
A,A,A,A,A,A,A,A,A,A,B,J,I,I,I,B,I,I,F,J,F,J,F,F,F,B,I,B,B,B,I,I,B,I,B,I,B,C,F,B,B,A,A,A,A,A,A,A,A,A
A,A,A,A,A,A,A,A,A,A,B,J,J,J,B,I,B,B,J,F,J,F,F,F,F,B,B,B,I,I,B,B,I,B,I,B,F,F,C,F,B,A,A,A,A,A,A,A,A,A
A,A,A,A,A,A,A,A,A,B,F,F,J,J,F,B,B,I,B,J,F,F,F,F,B,B,B,I,B,F,F,F,B,I,B,J,F,C,F,B,C,B,A,A,A,A,A,A,A,A
A,A,A,A,A,A,A,A,B,C,F,J,J,J,J,B,F,B,F,B,B,B,B,B,B,B,I,I,F,F,I,B,F,B,J,J,J,J,F,B,C,C,B,B,A,A,A,A,A,A
A,A,A,A,A,A,B,B,D,C,F,J,J,J,J,J,B,F,B,F,I,I,I,I,I,I,I,F,F,F,F,B,J,J,J,J,J,J,F,B,C,D,C,C,B,A,A,A,A,A
A,A,A,A,A,B,E,E,D,D,C,J,J,J,F,J,J,F,B,F,F,I,F,F,I,F,I,F,F,B,B,B,J,J,J,J,J,J,F,C,C,D,E,E,C,B,A,A,A,A
A,A,A,A,B,D,D,D,D,D,C,F,J,J,F,J,J,B,B,B,F,B,F,F,I,F,F,F,B,F,I,J,J,J,J,J,J,F,C,C,C,D,D,D,C,B,A,A,A,A
A,A,A,B,D,D,D,D,D,E,E,C,F,J,F,J,B,E,E,F,B,B,F,B,F,B,F,B,B,B,J,E,B,B,J,J,J,F,C,E,E,D,D,C,E,B,B,A,A,A
A,A,A,B,D,E,E,E,D,E,E,C,C,J,J,B,J,C,C,B,J,J,J,J,J,J,J,J,J,J,C,E,E,E,B,J,F,B,C,E,E,D,D,C,E,E,B,A,A,A
A,A,A,B,D,E,D,D,D,D,E,E,E,C,B,E,C,E,G,B,B,J,J,J,J,J,J,J,B,A,J,C,C,C,E,B,F,C,E,E,D,D,D,C,C,E,C,B,A,A
A,A,B,D,D,D,D,D,D,E,E,D,C,C,J,B,E,C,C,G,B,F,B,B,E,B,B,B,B,E,C,E,E,E,B,F,C,C,D,E,E,D,D,C,C,C,C,B,B,A
A,A,B,D,E,D,E,E,D,D,E,D,D,D,B,J,B,G,G,B,J,J,B,B,E,B,J,J,J,B,B,E,F,B,F,B,F,C,D,E,D,D,D,C,E,D,C,B,B,A
A,B,C,D,D,D,D,D,D,D,C,D,D,B,B,B,J,F,F,F,E,B,E,E,E,E,E,B,E,F,F,F,B,F,B,B,B,C,D,D,D,D,D,D,D,C,C,B,B,A
A,B,D,D,D,D,E,E,D,D,D,D,D,B,C,B,B,J,J,F,B,E,C,C,E,C,C,E,B,F,F,F,B,B,C,C,B,C,D,D,D,D,E,E,D,C,D,D,B,A
B,B,D,D,D,D,D,D,E,D,D,D,D,B,C,C,C,B,B,J,J,B,B,B,E,B,B,B,F,F,F,B,C,C,D,C,C,B,D,D,D,E,E,D,C,D,D,D,B,B
B,D,D,D,D,D,E,E,E,E,D,D,D,B,C,D,D,C,C,B,B,F,F,E,E,E,F,F,F,B,B,C,D,D,D,D,C,B,D,D,E,E,E,E,C,D,D,D,C,B
B,D,D,D,D,D,D,E,E,E,D,D,D,B,C,D,D,D,C,C,C,F,F,E,C,E,F,F,B,B,C,D,D,D,D,D,C,B,D,D,E,E,E,E,C,D,D,D,C,B
B,D,D,D,D,D,D,D,E,D,D,D,B,B,D,D,D,D,D,C,C,B,B,E,B,E,B,B,C,C,D,D,D,D,D,D,C,B,D,D,D,E,E,D,C,C,D,D,C,B
B,D,D,C,C,E,E,E,D,D,B,B,B,B,D,D,D,D,D,D,B,B,B,B,E,B,B,B,B,D,D,D,D,B,D,D,C,B,B,D,D,D,E,E,E,D,D,D,C,B
