A,A,A,A,A,A,A,A,A,A,A,A,A,A,A,A,I,A,A,A,A,A,I,A,A,A,A,A,A,A,A,A,A,A,A,A,A,A,A
A,A,A,A,A,A,A,A,A,A,A,A,I,A,A,A,A,I,I,A,A,I,A,A,A,A,I,A,A,A,A,A,A,A,A,A,A,A,A
A,A,A,A,A,A,A,A,A,A,I,A,A,A,I,A,A,I,I,D,I,I,A,A,I,A,A,I,I,A,A,A,A,A,A,A,A,A,A
A,A,A,A,A,A,A,A,A,I,I,A,D,I,D,E,I,I,I,D,I,I,I,I,D,I,A,A,I,I,A,A,A,A,A,A,A,A,A
A,A,A,A,A,I,A,I,I,I,I,I,E,D,E,D,D,D,I,D,I,I,D,D,E,D,E,I,I,I,I,I,A,I,A,A,A,A,A
A,A,A,A,A,A,A,A,D,I,D,D,I,E,E,D,B,D,I,E,I,D,B,D,E,E,I,D,D,I,D,A,A,A,A,A,A,A,A
A,A,A,A,A,A,D,D,A,D,I,I,A,D,B,E,D,B,D,B,D,B,D,E,B,D,D,D,I,D,A,D,D,A,A,A,A,A,A
A,A,I,A,A,D,E,A,A,A,D,D,E,E,E,B,B,B,E,B,E,B,B,B,D,E,E,D,D,A,A,A,E,D,A,A,I,A,A
A,A,A,A,A,D,E,A,G,G,A,D,D,E,B,E,G,B,B,B,B,B,G,E,B,E,E,D,A,G,G,A,E,D,A,A,A,A,A
A,A,A,I,A,D,E,A,A,A,D,D,E,B,G,G,D,D,E,B,E,D,D,D,D,B,B,E,D,A,A,A,E,D,A,I,A,A,A
A,A,A,A,A,A,E,A,A,D,D,B,B,G,G,I,I,D,D,B,D,D,I,I,G,G,B,B,G,D,A,A,E,A,A,A,A,A,A
A,A,I,I,A,A,A,A,G,E,E,B,G,G,I,I,I,D,E,E,E,D,I,I,I,G,D,B,B,E,G,A,A,A,A,I,I,A,A
A,A,A,A,H,E,A,B,B,B,B,B,D,G,I,I,I,I,D,E,D,I,I,I,I,G,D,D,B,D,D,D,A,E,H,A,A,A,A
A,A,A,I,H,A,A,D,G,B,B,D,D,I,I,E,E,I,D,B,D,I,E,E,I,I,I,D,B,B,A,D,D,A,H,I,A,A,A
A,A,I,H,A,I,I,G,B,E,E,B,B,B,B,B,E,E,D,D,D,E,E,B,B,B,B,B,E,E,B,A,I,I,A,H,I,A,A
A,I,A,A,I,D,D,B,D,E,E,D,B,B,C,B,E,D,D,D,D,D,E,B,C,B,B,I,D,E,D,B,D,D,I,A,A,I,A
A,A,A,I,I,I,E,D,D,E,E,D,I,B,B,B,E,D,I,I,I,D,E,B,B,B,I,D,E,E,D,D,E,I,I,I,A,A,A
A,A,A,A,A,A,E,D,E,B,E,D,E,I,D,I,B,D,I,I,I,D,B,I,D,I,D,E,E,B,E,D,D,B,B,I,A,A,A
A,A,I,A,D,D,D,E,B,B,E,E,E,E,D,E,E,D,I,I,I,D,E,E,D,D,E,E,E,B,B,E,I,D,D,B,I,A,A
I,A,I,A,D,I,I,E,E,E,B,E,E,E,E,E,D,I,I,I,I,I,D,E,E,E,E,E,B,B,E,E,I,I,D,B,I,A,I
A,A,A,D,I,I,A,D,D,E,B,B,E,B,D,D,G,G,D,D,D,G,G,D,D,B,E,B,B,E,D,D,E,I,I,D,A,A,A
A,A,A,D,D,A,I,D,B,B,B,B,E,E,D,D,B,F,G,G,G,F,B,D,D,E,E,B,B,B,B,D,I,A,D,D,A,A,A
A,A,A,D,A,I,D,D,D,D,B,B,B,B,D,D,B,B,B,F,B,B,B,D,D,B,B,B,B,D,D,D,D,I,A,D,D,A,A
A,A,D,D,A,D,D,E,E,B,H,H,B,I,I,I,I,I,B,B,B,I,I,I,I,I,B,H,H,B,E,E,D,D,A,D,D,A,A
A,A,D,A,A,D,E,A,H,H,B,B,B,B,B,I,B,I,I,B,I,I,B,I,B,B,B,B,B,H,H,B,D,D,A,A,D,A,A
I,A,D,A,D,D,E,I,I,I,H,H,B,H,I,I,I,H,H,B,H,H,I,I,I,H,B,H,H,I,I,I,A,D,D,A,A,A,I
A,A,A,H,D,E,A,I,I,H,B,B,B,B,H,H,H,H,B,B,B,H,H,H,H,B,B,B,B,H,I,I,A,E,D,H,A,A,A
A,A,A,H,E,A,I,H,I,H,B,H,B,B,B,H,B,B,H,H,H,B,B,H,B,B,H,H,B,H,I,H,I,A,E,H,A,A,A
A,A,A,H,A,H,H,H,I,H,H,H,E,H,B,B,H,I,I,I,I,I,H,B,B,B,E,H,H,H,I,H,E,H,A,H,A,A,A
A,A,A,A,A,H,A,H,I,I,I,I,E,E,B,H,I,I,H,H,H,I,I,H,B,E,B,I,H,I,I,H,A,H,A,A,A,A,A
A,A,A,A,A,E,A,H,H,A,I,I,A,H,E,B,B,H,B,B,B,H,B,B,B,E,H,B,I,A,H,H,A,E,A,A,A,A,A
A,A,A,I,A,A,A,H,H,A,I,H,A,H,E,B,B,B,B,B,B,B,B,B,E,B,H,B,I,A,H,H,A,A,A,I,A,A,A
A,A,A,A,A,A,A,A,H,A,I,A,A,H,E,B,E,B,B,B,B,B,E,B,E,H,H,A,I,A,H,A,A,A,A,A,A,A,A
A,A,A,A,A,I,A,A,H,A,H,A,A,A,H,B,E,B,E,B,E,B,E,B,E,H,A,A,H,A,H,A,A,I,A,A,A,A,A
A,A,A,A,A,A,A,A,H,A,H,A,A,A,H,B,H,E,E,B,E,B,H,B,E,H,A,A,H,A,H,A,A,A,A,A,A,A,A
A,A,A,A,A,A,A,A,A,A,H,H,A,A,H,B,H,E,E,H,E,B,H,B,A,H,A,H,H,A,A,A,A,A,A,A,A,A,A
A,A,A,A,A,A,A,A,A,A,A,A,A,A,H,B,H,A,A,H,A,A,H,A,A,A,A,H,A,A,A,A,A,A,A,A,A,A,A
A,A,A,A,A,A,A,A,A,A,A,A,A,A,A,A,A,A,A,H,A,A,A,A,A,A,A,A,A,A,A,A,A,A,A,A,A,A,A
A,A,A,A,A,A,A,A,A,A,A,A,I,A,A,A,A,A,A,H,A,A,A,A,A,A,I,A,A,A,A,A,A,A,A,A,A,A,A
