  A,A,A,A,A,A,A,A,A,A,B,B,B,B,B,B,B,A,A,A,A,A,A,A,A,A,A,A,A,A,A,A,A,A,A,A,A,A
  A,A,A,A,A,A,A,A,B,B,D,D,D,D,D,D,B,B,B,A,A,A,A,A,A,A,A,A,A,A,A,A,A,A,A,A,A,A
  A,A,A,A,A,A,B,B,D,D,D,D,D,D,D,D,D,D,D,B,A,A,A,A,A,A,A,A,A,A,A,A,A,A,A,A,A,A
  A,A,A,A,A,G,G,G,G,G,I,I,I,I,I,C,D,D,D,B,B,A,A,A,A,A,A,A,A,A,A,A,A,A,A,A,A,A
  A,A,A,A,G,P,P,P,P,H,H,H,H,H,H,G,C,C,C,C,B,B,A,A,A,A,A,A,A,A,A,A,A,A,A,A,A,A
  A,A,A,G,P,P,P,P,P,P,P,H,H,H,H,H,G,C,C,C,C,B,A,A,A,A,A,A,A,A,A,A,A,A,A,A,A,A
  A,A,G,P,P,P,P,P,P,P,P,P,H,H,H,H,H,G,C,C,C,B,B,A,A,A,A,A,A,A,A,A,A,A,A,A,A,A
  A,G,P,P,P,P,P,P,G,P,P,H,H,H,G,G,H,H,G,C,C,C,B,A,A,A,A,A,A,A,A,A,A,A,B,B,B,B
  A,A,G,G,G,B,B,G,P,P,P,B,B,G,L,L,G,H,G,C,C,C,B,A,A,A,A,A,A,A,A,A,A,B,E,M,M,B
  A,A,A,A,A,B,K,B,P,P,B,G,G,L,L,L,G,H,G,C,C,C,B,A,A,A,A,A,A,A,A,A,B,E,M,E,M,B
  A,A,A,A,A,B,B,G,G,G,B,B,B,B,L,L,G,H,G,B,B,C,B,A,A,A,A,A,A,A,A,B,E,M,E,M,B,A
  B,B,B,B,B,B,B,B,K,B,N,B,B,N,L,L,G,H,G,K,B,C,B,A,A,A,A,A,A,A,B,E,M,E,M,B,A,A
  B,M,M,M,F,I,F,K,K,K,F,B,B,F,L,L,B,G,K,B,C,C,B,A,B,B,A,A,A,B,E,M,E,M,B,A,A,A
  B,M,I,I,I,B,K,K,K,K,K,K,L,L,L,L,B,K,G,C,C,E,D,B,E,E,B,A,B,E,M,E,M,B,A,A,A,A
  B,N,I,J,J,J,B,K,K,K,K,K,L,L,L,L,B,G,P,G,C,E,D,B,E,M,B,B,E,M,E,M,B,A,A,A,A,A
  B,N,I,J,J,J,J,B,K,K,K,L,L,L,L,B,C,C,C,C,E,E,E,E,E,M,B,E,E,M,M,B,A,A,A,A,A,A
  B,N,I,J,J,J,B,M,B,B,B,B,B,B,B,E,D,D,D,D,D,D,D,D,E,E,B,H,E,E,B,A,A,A,A,A,A,A
  B,N,I,J,N,N,M,M,C,C,C,E,C,D,C,E,D,C,E,C,C,C,D,D,D,B,H,O,H,E,E,B,A,A,A,A,A,A
  B,N,B,B,N,N,C,M,M,B,B,B,E,D,E,D,D,C,E,E,E,E,C,D,D,D,B,H,E,E,E,E,B,A,A,A,A,A
  B,F,B,K,N,N,B,N,M,I,I,B,C,E,D,D,D,C,E,B,A,A,E,E,C,C,B,B,E,E,N,M,B,A,A,A,A,A
  B,M,B,K,M,N,B,N,M,I,I,B,C,C,D,D,D,D,B,A,A,A,B,B,E,B,K,K,B,B,B,B,B,A,A,A,A,A
  B,M,I,B,M,M,K,N,M,I,M,B,D,D,D,D,D,D,D,B,A,B,E,E,E,B,B,B,A,A,A,A,A,A,A,A,A,A
  A,B,M,I,I,I,I,I,I,I,B,I,I,I,I,I,I,I,I,B,A,B,M,E,B,A,A,A,A,A,A,A,A,A,A,A,A,A
  A,B,M,I,I,I,I,I,I,I,B,C,D,D,D,D,D,D,C,B,A,A,B,B,A,A,A,A,A,A,A,A,A,A,A,A,A,A
  A,A,B,M,I,I,I,I,I,N,C,C,C,C,C,C,C,C,C,C,B,A,A,A,A,A,A,A,A,A,A,A,A,A,A,A,A,A
  A,A,A,B,M,I,I,I,N,E,E,E,E,E,E,E,E,E,E,E,E,E,A,A,A,A,A,A,A,A,A,A,A,A,A,A,A,A
  A,A,A,A,B,M,M,N,B,E,E,M,M,B,A,A,A,B,E,E,M,B,A,A,A,A,A,A,A,A,A,A,A,A,A,A,A,A
  A,A,A,A,A,B,M,B,M,M,E,M,B,A,A,A,A,A,B,E,M,M,B,A,A,A,A,A,A,A,A,A,A,A,A,A,A,A
  A,A,A,A,A,A,B,D,D,I,E,B,A,A,A,A,A,A,B,C,I,D,B,A,A,A,A,A,A,A,A,A,A,A,A,A,A,A
  A,A,A,A,A,B,C,I,I,C,B,A,A,A,A,A,A,A,B,C,I,I,C,B,A,A,A,A,A,A,A,A,A,A,A,A,A,A
  A,A,A,A,A,B,B,B,B,B,A,A,A,A,A,A,A,A,A,B,B,B,B,B,A,A,A,A,A,A,A,A,A,A,A,A,A,A
 
