A,A,A,A,A,A,A,A,A,A,A,B,B,B,B,B,B,A,A,A,A,A,A,A,A,A,A,A
A,A,A,A,A,A,A,A,A,B,B,D,C,C,C,C,D,B,B,A,A,A,A,A,A,A,A,A
A,A,A,A,A,A,A,B,B,D,D,C,D,D,D,D,C,D,D,B,B,A,A,A,A,A,A,A
A,A,A,A,A,A,B,D,D,D,D,D,D,D,D,D,D,D,D,D,D,B,A,A,A,A,A,A
A,A,A,A,A,B,E,D,D,D,D,D,C,D,D,C,D,D,D,D,D,E,B,A,A,A,A,A
A,A,A,A,A,B,E,D,D,D,D,D,D,D,D,D,D,D,D,D,D,D,E,B,A,A,A,A
A,A,A,A,B,E,D,B,B,B,D,D,D,D,D,D,D,D,B,B,B,D,E,B,A,A,A,A
A,A,A,B,E,D,D,B,C,C,B,D,D,D,D,D,D,B,C,C,B,D,D,E,B,A,A,A
A,A,A,B,E,D,B,B,C,B,B,B,D,D,D,D,B,B,B,C,B,B,D,E,B,A,A,A
A,A,A,B,E,D,B,B,B,C,B,B,D,D,D,D,B,B,C,B,B,B,D,E,B,A,A,A
A,A,A,B,E,D,B,B,B,C,B,B,D,D,D,D,B,B,C,B,B,B,D,E,B,A,A,A
A,A,A,B,E,D,F,B,B,B,B,D,B,D,D,B,D,B,B,B,B,F,E,E,B,A,A,A
A,A,A,A,B,E,F,F,B,B,D,D,D,B,B,D,D,D,B,B,F,F,E,B,A,A,A,A
A,A,A,A,B,B,E,F,F,F,D,D,D,D,D,D,D,D,F,F,F,E,B,B,B,A,A,A
A,A,A,B,B,F,B,E,E,E,E,D,D,D,D,D,D,E,E,E,E,B,F,F,B,A,A,A
A,A,B,F,F,F,B,B,B,B,E,E,E,E,E,E,E,E,B,B,B,B,F,F,F,B,A,A
A,A,B,F,F,B,D,C,B,B,G,B,B,B,B,B,B,G,B,B,C,D,B,F,F,B,A,A
A,A,B,F,F,B,C,D,E,E,G,H,H,F,F,H,H,G,E,E,D,C,B,F,F,B,A,A
A,A,B,F,G,B,D,D,E,E,F,H,H,F,F,H,H,F,E,E,D,D,B,G,F,B,A,A
A,A,B,G,G,B,D,E,B,B,G,G,G,G,G,G,G,G,B,B,E,D,B,G,G,B,A,A
A,A,B,G,G,B,E,B,G,G,F,H,H,F,F,H,H,F,G,G,B,E,B,G,G,B,A,A
A,A,A,B,G,G,B,B,G,G,F,F,F,F,F,F,F,F,G,G,B,B,G,G,B,A,A,A
A,A,A,B,B,B,E,C,D,B,B,H,H,G,G,H,H,B,B,D,C,E,B,B,B,A,A,A
A,A,A,A,A,B,E,E,D,D,B,G,G,G,G,G,G,B,D,D,E,E,B,A,A,A,A,A
A,A,A,I,I,B,E,E,E,E,B,B,B,B,B,B,B,B,E,E,E,E,B,I,I,A,A,A
A,A,I,I,I,I,B,B,B,B,I,I,I,I,I,I,I,I,B,B,B,B,I,I,I,I,A,A
A,A,A,A,I,I,I,I,I,I,I,I,I,I,I,I,I,I,I,I,I,I,I,I,A,A,A,A
A,A,A,A,A,A,A,A,A,A,A,A,A,A,A,A,A,A,A,A,A,A,A,A,A,A,A,A
